[gd_resource type="Environment" load_steps=2 format=2]

[sub_resource type="ProceduralSky" id=1]

[resource]
background_mode = 4
background_sky = SubResource( 1 )
background_sky_orientation = Basis( -0.866026, 0, -0.5, 0, 1, 0, 0.5, 0, -0.866026 )
background_sky_rotation = Vector3( 0, -2.61799, 0 )
background_sky_rotation_degrees = Vector3( 0, -150, 0 )
glow_enabled = true
glow_bloom = 0.8
glow_blend_mode = 0
glow_hdr_threshold = 0.9
